{
  "schedule": [
    {
      "date": "2047-05-17",
      "groups": [
        {
          "time": "8:00 am",
          "sessions": [
            {
              "name": "Reunión con PEPE",
              "timeStart": "8:00 am",
              "timeEnd": "9:00 am",
              "location": "Camara de Comercio de Bogotá",
              "tracks": ["Food"],
              "id": "1"
            }
          ]
        },
        {
          "time": "9:15 am",
          "sessions": [
            {
              "name": "Almuerzo",
              "location": "Resturante Comida Jaonesa",
              "description": "almuerzo con María para cuadrar lo del negocio X.",
              "speakerNames": ["Ted Turtle"],
              "timeStart": "9:30 am",
              "timeEnd": "9:45 am",
              "tracks": ["Ionic"],
              "id": "2"
            },
            {
              "name": "Conferencia",
              "location": "Universidad X",
              "description": "Conferecia en auditorio de la Univesidad X acerca del marketing digital.",
              "speakerNames": ["Rachel Rabbit"],
              "timeStart": "9:45 am",
              "timeEnd": "10:00 am",
              "tracks": ["Tooling"],
              "id": "3"
            },
            {
              "name": "Pago de Impuestos sobre importaciones",
              "location": "DIAN",
              "description": "Pagar impuestos en la DIAN.",
              "speakerNames": ["Ellie Elephant"],
              "timeStart": "9:15 am",
              "timeEnd": "9:30 am",
              "tracks": ["Ionic"],
              "id": "4"
            }
          ]
        },
        {
          "time": "10:00 am",
          "sessions": [
            {
              "name": "Clases de Taekwondo",
              "location": "Chapinero",
              "description": "entrenamiento.",
              "speakerNames": ["Eva Eagle", "Lionel Lion"],
              "timeStart": "10:00 am",
              "timeEnd": "10:15 am",
              "tracks": ["Ionic"],
              "id": "5"
            },
            {
              "name": "What's New in Angular",
              "location": "Hall 3",
              "description": "Mobile devices and browsers are now advanced enough that developers can build native-quality mobile apps using open web technologies like HTML5, Javascript, and CSS. In this talk, we’ll provide background on why and how we created Ionic, the design decisions made as we integrated Ionic with Angular, and the performance considerations for mobile platforms that our team had to overcome. We’ll also review new and upcoming Ionic features, and talk about the hidden powers and benefits of combining mobile app development and Angular.",
              "speakerNames": ["Rachel Rabbit"],
              "timeStart": "10:15 am",
              "timeEnd": "10:30 am",
              "tracks": ["Angular"],
              "id": "6"
            },
            {
              "name": "Concierto banda X",
              "location": "El Campin",
              "description": "concierto de rock de banda X.",
              "speakerNames": ["Isabella Iguana", "Eva Eagle"],
              "timeStart": "10:15 am",
              "timeEnd": "10:30 am",
              "tracks": ["Design"],
              "id": "7"
            },
            {
              "name": "Ionic Pro",
              "location": "Grand Ballroom A",
              "description": "Mobile devices and browsers are now advanced enough that developers can build native-quality mobile apps using open web technologies like HTML5, Javascript, and CSS. In this talk, we’ll provide background on why and how we created Ionic, the design decisions made as we integrated Ionic with Angular, and the performance considerations for mobile platforms that our team had to overcome. We’ll also review new and upcoming Ionic features, and talk about the hidden powers and benefits of combining mobile app development and Angular.",
              "speakerNames": ["Charlie Cheetah"],
              "timeStart": "10:45 am",
              "timeEnd": "11:00 am",
              "tracks": ["Services"],
              "id": "8"
            }
          ]
        },
        {
          "time": "11:00 am",
          "sessions": [
            {
              "name": "Ionic Workshop",
              "location": "Hall 1",
              "description": "Mobile devices and browsers are now advanced enough that developers can build native-quality mobile apps using open web technologies like HTML5, Javascript, and CSS. In this talk, we’ll provide background on why and how we created Ionic, the design decisions made as we integrated Ionic with Angular, and the performance considerations for mobile platforms that our team had to overcome. We’ll also review new and upcoming Ionic features, and talk about the hidden powers and benefits of combining mobile app development and Angular.",
              "speakerNames": ["Karl Kitten", "Lionel Lion"],
              "timeStart": "11:00 am",
              "timeEnd": "11:45 am",
              "tracks": ["Workshop"],
              "id": "9"
            },
            {
              "name": "Community Interaction",
              "location": "Hall 3",
              "description": "Mobile devices and browsers are now advanced enough that developers can build native-quality mobile apps using open web technologies like HTML5, Javascript, and CSS. In this talk, we’ll provide background on why and how we created Ionic, the design decisions made as we integrated Ionic with Angular, and the performance considerations for mobile platforms that our team had to overcome. We’ll also review new and upcoming Ionic features, and talk about the hidden powers and benefits of combining mobile app development and Angular.",
              "speakerNames": ["Lionel Lion", "Gino Giraffe"],
              "timeStart": "11:30 am",
              "timeEnd": "11:50 am",
              "tracks": ["Communication"],
              "id": "10"
            },
            {
              "name": "Navigation in Ionic",
              "location": "Grand Ballroom A",
              "description": "Mobile devices and browsers are now advanced enough that developers can build native-quality mobile apps using open web technologies like HTML5, Javascript, and CSS. In this talk, we’ll provide background on why and how we created Ionic, the design decisions made as we integrated Ionic with Angular, and the performance considerations for mobile platforms that our team had to overcome. We’ll also review new and upcoming Ionic features, and talk about the hidden powers and benefits of combining mobile app development and Angular.",
              "speakerNames": ["Rachel Rabbit", "Eva Eagle"],
              "timeStart": "11:30 am",
              "timeEnd": "12:00 pm",
              "tracks": ["Navigation"],
              "id": "11"
            }
          ]
        },
        {
          "time": "12:00 pm",
          "sessions": [
            {
              "name": "Lunch",
              "location": "Dining Hall",
              "description": "Come grab lunch with all the Ionic fanatics and talk all things Ionic",
              "timeStart": "12:00 pm",
              "timeEnd": "1:00 pm",
              "tracks": ["Food"],
              "id": "12"
            }
          ]
        },
        {
          "time": "1:00 pm",
          "sessions": [
            {
              "name": "Ionic in the Enterprise",
              "location": "Hall 1",
              "description": "Mobile devices and browsers are now advanced enough that developers can build native-quality mobile apps using open web technologies like HTML5, Javascript, and CSS. In this talk, we’ll provide background on why and how we created Ionic, the design decisions made as we integrated Ionic with Angular, and the performance considerations for mobile platforms that our team had to overcome. We’ll also review new and upcoming Ionic features, and talk about the hidden powers and benefits of combining mobile app development and Angular.",
              "speakerNames": ["Paul Puppy"],
              "timeStart": "1:00 pm",
              "timeEnd": "1:15 pm",
              "tracks": ["Communication"],
              "id": "13"
            },
            {
              "name": "Ionic Worldwide",
              "location": "Hall 1",
              "description": "Mobile devices and browsers are now advanced enough that developers can build native-quality mobile apps using open web technologies like HTML5, Javascript, and CSS. In this talk, we’ll provide background on why and how we created Ionic, the design decisions made as we integrated Ionic with Angular, and the performance considerations for mobile platforms that our team had to overcome. We’ll also review new and upcoming Ionic features, and talk about the hidden powers and benefits of combining mobile app development and Angular.",
              "speakerNames": ["Gino Giraffe"],
              "timeStart": "1:15 pm",
              "timeEnd": "1:30 pm",
              "tracks": ["Communication"],
              "id": "14"
            },
            {
              "name": "The Ionic Package",
              "location": "Grand Ballroom B",
              "description": "Mobile devices and browsers are now advanced enough that developers can build native-quality mobile apps using open web technologies like HTML5, Javascript, and CSS. In this talk, we’ll provide background on why and how we created Ionic, the design decisions made as we integrated Ionic with Angular, and the performance considerations for mobile platforms that our team had to overcome. We’ll also review new and upcoming Ionic features, and talk about the hidden powers and benefits of combining mobile app development and Angular.",
              "speakerNames": ["Molly Mouse", "Burt Bear"],
              "timeStart": "1:30 pm",
              "timeEnd": "2:00 pm",
              "tracks": ["Services"],
              "id": "15"
            }
          ]
        },
        {
          "time": "2:00 pm",
          "sessions": [
            {
              "name": "Push Notifications in Ionic",
              "location": "Hall 2",
              "description": "Mobile devices and browsers are now advanced enough that developers can build native-quality mobile apps using open web technologies like HTML5, Javascript, and CSS. In this talk, we’ll provide background on why and how we created Ionic, the design decisions made as we integrated Ionic with Angular, and the performance considerations for mobile platforms that our team had to overcome. We’ll also review new and upcoming Ionic features, and talk about the hidden powers and benefits of combining mobile app development and Angular.",
              "speakerNames": ["Burt Bear", "Charlie Cheetah"],
              "timeStart": "2:00 pm",
              "timeEnd": "2:30 pm",
              "tracks": ["Services"],
              "id": "16"
            },
            {
              "name": "Ionic Documentation",
              "location": "Grand Ballroom B",
              "description": "Mobile devices and browsers are now advanced enough that developers can build native-quality mobile apps using open web technologies like HTML5, Javascript, and CSS. In this talk, we’ll provide background on why and how we created Ionic, the design decisions made as we integrated Ionic with Angular, and the performance considerations for mobile platforms that our team had to overcome. We’ll also review new and upcoming Ionic features, and talk about the hidden powers and benefits of combining mobile app development and Angular.",
              "speakerNames": ["Donald Duck"],
              "timeStart": "2:30 pm",
              "timeEnd": "2:45 pm",
              "tracks": ["Documentation"],
              "id": "17"
            },
            {
              "name": "UX in Ionic",
              "location": "Hall 3",
              "description": "Mobile devices and browsers are now advanced enough that developers can build native-quality mobile apps using open web technologies like HTML5, Javascript, and CSS. In this talk, we’ll provide background on why and how we created Ionic, the design decisions made as we integrated Ionic with Angular, and the performance considerations for mobile platforms that our team had to overcome. We’ll also review new and upcoming Ionic features, and talk about the hidden powers and benefits of combining mobile app development and Angular.",
              "speakerNames": ["Isabella Iguana", "Ellie Elephant"],
              "timeStart": "2:45 pm",
              "timeEnd": "3:00 pm",
              "tracks": ["Design"],
              "id": "18"
            }
          ]
        },
        {
          "time": "3:00",
          "sessions": [
            {
              "name": "Angular Directives in Ionic",
              "location": "Hall 1",
              "description": "Mobile devices and browsers are now advanced enough that developers can build native-quality mobile apps using open web technologies like HTML5, Javascript, and CSS. In this talk, we’ll provide background on why and how we created Ionic, the design decisions made as we integrated Ionic with Angular, and the performance considerations for mobile platforms that our team had to overcome. We’ll also review new and upcoming Ionic features, and talk about the hidden powers and benefits of combining mobile app development and Angular.",
              "speakerNames": ["Ted Turtle"],
              "timeStart": "3:00 pm",
              "timeEnd": "3:30 pm",
              "tracks": ["Angular"],
              "id": "19"
            },
            {
              "name": "Mobile States",
              "location": "Hall 2",
              "description": "Mobile devices and browsers are now advanced enough that developers can build native-quality mobile apps using open web technologies like HTML5, Javascript, and CSS. In this talk, we’ll provide background on why and how we created Ionic, the design decisions made as we integrated Ionic with Angular, and the performance considerations for mobile platforms that our team had to overcome. We’ll also review new and upcoming Ionic features, and talk about the hidden powers and benefits of combining mobile app development and Angular.",
              "speakerNames": ["Rachel Rabbit"],
              "timeStart": "3:30 pm",
              "timeEnd": "3:45 pm",
              "tracks": ["Navigation"],
              "id": "20"
            }
          ]
        }
      ]
    }
  ],

  "speakers": [
    {
      "name": "Alfonso Alberto Albarracín Alvarado",
      "profilePic": "/assets/img/speakers/perfil1.PNG",
      "twitter": "ionicframework",
      "about": "Tecnólogo en Instalaciones Eléctricas con 5 años de experiencia en el campo...",
      "prof_Cargo": "Tecnólogo en Instalaciones Eléctricas",
      "location": "Cafetería Pan y Café",
      "email": "AAAA@example.com",
      "phone": "+57 3131234567",
      "id": "1"
    },
    {
      "name": "Brandon Bob Bustamante Bosque",
      "profilePic": "/assets/img/speakers/perfil2.PNG",
      "twitter": "ionicframework",
      "about": "Diseñador Gráfico y fotógrafo con un amplio portafolio y experiencia en el sector.",
      "prof_Cargo": "Diseñador Gráfico",
      "location": "En tu misma ubicación",
      "email": "BBBB@example.com",
      "phone": "+57 3122345678",
      "id": "2"
    },
    {
      "name": "Carlos Camilo Calderón Contreras",
      "profilePic": "/assets/img/speakers/perfil3.PNG",
      "twitter": "ionicframework",
      "about": "Ingeniero civil que ha trabajado en varios proyectos de infraestructura con el Estado Colombiano ...",
      "prof_Cargo":"Gerente de Proyectos de Ingeniería Civil",
      "location": "Cámara de Comercio de Bogotá",
      "email": "CCCC@example.com",
      "phone": "+57 3143456789",
      "id": "3"
    },
    {
      "name": "Daniela Dayana Diaz Duran",
      "profilePic": "/assets/img/speakers/perfil4.PNG",
      "twitter": "ionicframework",
      "about": "Periodista con magister en periodismo escrito que ha estado en grandes empresas del sector como El Espectador y El Tiempo....",
      "prof_Cargo": "Jefe de Edición de Artículos Noticiosos",
      "location": "Casa Editorial el Tiempo",
      "email": "DDDD@example.com",
      "phone": "+57 3135678901",
      "id": "4"
    },
    {
      "name": "Eliana Elizabeth Elisondo Eslava",
      "profilePic": "/assets/img/speakers/perfil5.PNG",
      "twitter": "ionicframework",
      "about": "Administradora de empresas con experiencia de 3 años en el sector bancario....",
      "prof_Cargo": "Gerente Comercial",
      "location": "World Business Port",
      "email": "EEEE@example.com",
      "phone": "+57 3127890123",
      "id": "5"
    },
    {
      "name": "Fabian Fabricio Fuentes Farfan",
      "profilePic": "/assets/img/speakers/perfil6.PNG",
      "twitter": "ionicframework",
      "about": "Chef empírico que ha hecho varios cursos y diplomados acerca de la comida Colombiana....",
      "prof_Cargo": "Chef especialista en Comida Colombiana",
      "location": "Restaurante Son y Sasón",
      "email": "FFFF@example.com",
      "phone": "+57 3148901234",
      "id": "6"
    },
    {
      "name": "Gabriela Gema Guarín González",
      "profilePic": "/assets/img/speakers/perfil7.PNG",
      "twitter": "ionicframework",
      "about": "Ingeniera industrial recién graduada de la Universidad X....",
      "prof_Cargo": "Ingeniera Industrial",
      "location": "Banco Caja Social",
      "email": "GGGG@example.com",
      "phone": "+1-541-754-3010",
      "id": "7"
    },
    {
      "name": "Horacio Hernando Hoyos Hernandez",
      "profilePic": "/assets/img/speakers/perfil8.PNG",
      "twitter": "ionicframework",
      "about": "Desarrollador Frontend especialista en Angular....",
      "prof_Cargo": "Desarrolllador Frontend",
      "location": "En tu misma ubicación",
      "email": "HHHH@example.com",
      "phone": "+57 3149012345",
      "id": "8"
    },
    {
      "name": "Igor Ignacio Ibañez Ibarra",
      "profilePic": "/assets/img/speakers/perfil9.PNG",
      "twitter": "ionicframework",
      "about": "Ingeniero Electrónico con amplio recorrido en el sector de las telecomunicaciones y la informática...",
      "prof_Cargo": "Especialisa en IT.",
      "location": "Claro ideas",
      "email": "IIII@example.com",
      "phone": "+57 3114561234",
      "id": "9"
    },
    {
      "name": "Juana Julieth Jimenez Jara",
      "profilePic": "/assets/img/speakers/perfil10.PNG",
      "twitter": "ionicframework",
      "about": "Carpintera cuyo oficio fue heredado de su padre desde que tiene 11 años....",
      "prof_Cargo": "Carpintera Empírica.",
      "location": "Camara de Comercio",
      "email": "JJJJ@example.com",
      "phone": "+57 3115431278",
      "id": "10"
    },
    {
      "name": "Karen Katherine Klauss Karlan",
      "profilePic": "/assets/img/speakers/perfil11.PNG",
      "twitter": "ionicframework",
      "about": "Odontóloga de la EPS famisanar....",
      "prof_Cargo": "Epecialista en Salud Bucal.",
      "location": "World Bussiness Port",
      "email": "KKKK@example.com",
      "phone": "+57 3149800123",
      "id": "11"
    },
    {
      "name": "Luz Lorena Lopez Lombardi",
      "profilePic": "/assets/img/speakers/perfil12.PNG",
      "twitter": "ionicframework",
      "about": "Aprendiz SENA ....",
      "prof_Cargo": "Capacitada Atención al Cliente.",
      "location": "Banco de Bogotá",
      "email": "LLLL@example.com",
      "phone": "+57 3135439078",
      "id": "12"
    },
    {
      "name": "María Mireya Molano Mendieta",
      "profilePic": "/assets/img/speakers/perfil13.PNG",
      "twitter": "ionicframework",
      "about": "Ingeniera industrial especializada en gestión de proyectos con 15 años de experiencia en la industria de bebidas de Colombia....",
      "prof_Cargo": "Gerente de Bavaria.",
      "location": "World Business Port",
      "email": "MMMM@example.com",
      "phone": "+57 3204327659",
      "id": "13"
    }
  ],

  "map": [
    {
      "name": "World Business Port",
      "lat": 4.6576166,
      "lng": -74.10723769999998,
      "center": true
    },
    {
      "name": "Camara de Comercio Bogotá Cll 26",
      "lat": 4.668733,
      "lng": -74.11392439999997
    },
    {
      "name": "El Tiempo",
      "lat": 4.6572323,
      "lng": -74.10435869999998
    }
  ]
}
